sim/logs/run_core_full.log
ICACHE: Loaded hex file:                                                                                                                      hex/fib.hex
ICACHE: Valid lines after preload: 64 / 512 (12.5%)

=== ICACHE Detailed Dump - All Valid Lines ===
Way | Set | Tag (Hex)        | Valid | Data (8 words)
----+-----+------------------+-------+----------------------------------------------------------------
 0  |  0  | 0x000000000000 |   1   | 0010011300000093 0000021300a00193 00010093002082b3 0012021300028113 00028513fe3248e3 0000000000100073 0000000000000000 0000000000000000
 0  |  1  | 0x000000000000 |   1   | 0000000000000000 0000000000000000 0000000000000000 0000000000000000 0000000000000000 0000000000000000 0000000000000000 0000000000000000
 0  |  2  | 0x000000000000 |   1   | 0000000000000000 0000000000000000 0000000000000000 0000000000000000 0000000000000000 0000000000000000 0000000000000000 0000000000000000
 0  |  3  | 0x000000000000 |   1   | 0000000000000000 0000000000000000 0000000000000000 0000000000000000 0000000000000000 0000000000000000 0000000000000000 0000000000000000
 0  |  4  | 0x000000000000 |   1   | 0000000000000000 0000000000000000 0000000000000000 0000000000000000 0000000000000000 0000000000000000 0000000000000000 0000000000000000
 0  |  5  | 0x000000000000 |   1   | 0000000000000000 0000000000000000 0000000000000000 0000000000000000 0000000000000000 0000000000000000 0000000000000000 0000000000000000
 0  |  6  | 0x000000000000 |   1   | 0000000000000000 0000000000000000 0000000000000000 0000000000000000 0000000000000000 0000000000000000 0000000000000000 0000000000000000
 0  |  7  | 0x000000000000 |   1   | 0000000000000000 0000000000000000 0000000000000000 0000000000000000 0000000000000000 0000000000000000 0000000000000000 0000000000000000
 0  |  8  | 0x000000000000 |   1   | 0000000000000000 0000000000000000 0000000000000000 0000000000000000 0000000000000000 0000000000000000 0000000000000000 0000000000000000
 0  |  9  | 0x000000000000 |   1   | 0000000000000000 0000000000000000 0000000000000000 0000000000000000 0000000000000000 0000000000000000 0000000000000000 0000000000000000
 0  | 10  | 0x000000000000 |   1   | 0000000000000000 0000000000000000 0000000000000000 0000000000000000 0000000000000000 0000000000000000 0000000000000000 0000000000000000
 0  | 11  | 0x000000000000 |   1   | 0000000000000000 0000000000000000 0000000000000000 0000000000000000 0000000000000000 0000000000000000 0000000000000000 0000000000000000
 0  | 12  | 0x000000000000 |   1   | 0000000000000000 0000000000000000 0000000000000000 0000000000000000 0000000000000000 0000000000000000 0000000000000000 0000000000000000
 0  | 13  | 0x000000000000 |   1   | 0000000000000000 0000000000000000 0000000000000000 0000000000000000 0000000000000000 0000000000000000 0000000000000000 0000000000000000
 0  | 14  | 0x000000000000 |   1   | 0000000000000000 0000000000000000 0000000000000000 0000000000000000 0000000000000000 0000000000000000 0000000000000000 0000000000000000
 0  | 15  | 0x000000000000 |   1   | 0000000000000000 0000000000000000 0000000000000000 0000000000000000 0000000000000000 0000000000000000 0000000000000000 0000000000000000
 0  | 16  | 0x000000000000 |   1   | 0000000000000000 0000000000000000 0000000000000000 0000000000000000 0000000000000000 0000000000000000 0000000000000000 0000000000000000
 0  | 17  | 0x000000000000 |   1   | 0000000000000000 0000000000000000 0000000000000000 0000000000000000 0000000000000000 0000000000000000 0000000000000000 0000000000000000
 0  | 18  | 0x000000000000 |   1   | 0000000000000000 0000000000000000 0000000000000000 0000000000000000 0000000000000000 0000000000000000 0000000000000000 0000000000000000
 0  | 19  | 0x000000000000 |   1   | 0000000000000000 0000000000000000 0000000000000000 0000000000000000 0000000000000000 0000000000000000 0000000000000000 0000000000000000
 0  | 20  | 0x000000000000 |   1   | 0000000000000000 0000000000000000 0000000000000000 0000000000000000 0000000000000000 0000000000000000 0000000000000000 0000000000000000
 0  | 21  | 0x000000000000 |   1   | 0000000000000000 0000000000000000 0000000000000000 0000000000000000 0000000000000000 0000000000000000 0000000000000000 0000000000000000
 0  | 22  | 0x000000000000 |   1   | 0000000000000000 0000000000000000 0000000000000000 0000000000000000 0000000000000000 0000000000000000 0000000000000000 0000000000000000
 0  | 23  | 0x000000000000 |   1   | 0000000000000000 0000000000000000 0000000000000000 0000000000000000 0000000000000000 0000000000000000 0000000000000000 0000000000000000
 0  | 24  | 0x000000000000 |   1   | 0000000000000000 0000000000000000 0000000000000000 0000000000000000 0000000000000000 0000000000000000 0000000000000000 0000000000000000
 0  | 25  | 0x000000000000 |   1   | 0000000000000000 0000000000000000 0000000000000000 0000000000000000 0000000000000000 0000000000000000 0000000000000000 0000000000000000
 0  | 26  | 0x000000000000 |   1   | 0000000000000000 0000000000000000 0000000000000000 0000000000000000 0000000000000000 0000000000000000 0000000000000000 0000000000000000
 0  | 27  | 0x000000000000 |   1   | 0000000000000000 0000000000000000 0000000000000000 0000000000000000 0000000000000000 0000000000000000 0000000000000000 0000000000000000
 0  | 28  | 0x000000000000 |   1   | 0000000000000000 0000000000000000 0000000000000000 0000000000000000 0000000000000000 0000000000000000 0000000000000000 0000000000000000
 0  | 29  | 0x000000000000 |   1   | 0000000000000000 0000000000000000 0000000000000000 0000000000000000 0000000000000000 0000000000000000 0000000000000000 0000000000000000
 0  | 30  | 0x000000000000 |   1   | 0000000000000000 0000000000000000 0000000000000000 0000000000000000 0000000000000000 0000000000000000 0000000000000000 0000000000000000
 0  | 31  | 0x000000000000 |   1   | 0000000000000000 0000000000000000 0000000000000000 0000000000000000 0000000000000000 0000000000000000 0000000000000000 0000000000000000
 0  | 32  | 0x000000000000 |   1   | 0000000000000000 0000000000000000 0000000000000000 0000000000000000 0000000000000000 0000000000000000 0000000000000000 0000000000000000
 0  | 33  | 0x000000000000 |   1   | 0000000000000000 0000000000000000 0000000000000000 0000000000000000 0000000000000000 0000000000000000 0000000000000000 0000000000000000
 0  | 34  | 0x000000000000 |   1   | 0000000000000000 0000000000000000 0000000000000000 0000000000000000 0000000000000000 0000000000000000 0000000000000000 0000000000000000
 0  | 35  | 0x000000000000 |   1   | 0000000000000000 0000000000000000 0000000000000000 0000000000000000 0000000000000000 0000000000000000 0000000000000000 0000000000000000
 0  | 36  | 0x000000000000 |   1   | 0000000000000000 0000000000000000 0000000000000000 0000000000000000 0000000000000000 0000000000000000 0000000000000000 0000000000000000
 0  | 37  | 0x000000000000 |   1   | 0000000000000000 0000000000000000 0000000000000000 0000000000000000 0000000000000000 0000000000000000 0000000000000000 0000000000000000
 0  | 38  | 0x000000000000 |   1   | 0000000000000000 0000000000000000 0000000000000000 0000000000000000 0000000000000000 0000000000000000 0000000000000000 0000000000000000
 0  | 39  | 0x000000000000 |   1   | 0000000000000000 0000000000000000 0000000000000000 0000000000000000 0000000000000000 0000000000000000 0000000000000000 0000000000000000
 0  | 40  | 0x000000000000 |   1   | 0000000000000000 0000000000000000 0000000000000000 0000000000000000 0000000000000000 0000000000000000 0000000000000000 0000000000000000
 0  | 41  | 0x000000000000 |   1   | 0000000000000000 0000000000000000 0000000000000000 0000000000000000 0000000000000000 0000000000000000 0000000000000000 0000000000000000
 0  | 42  | 0x000000000000 |   1   | 0000000000000000 0000000000000000 0000000000000000 0000000000000000 0000000000000000 0000000000000000 0000000000000000 0000000000000000
 0  | 43  | 0x000000000000 |   1   | 0000000000000000 0000000000000000 0000000000000000 0000000000000000 0000000000000000 0000000000000000 0000000000000000 0000000000000000
 0  | 44  | 0x000000000000 |   1   | 0000000000000000 0000000000000000 0000000000000000 0000000000000000 0000000000000000 0000000000000000 0000000000000000 0000000000000000
 0  | 45  | 0x000000000000 |   1   | 0000000000000000 0000000000000000 0000000000000000 0000000000000000 0000000000000000 0000000000000000 0000000000000000 0000000000000000
 0  | 46  | 0x000000000000 |   1   | 0000000000000000 0000000000000000 0000000000000000 0000000000000000 0000000000000000 0000000000000000 0000000000000000 0000000000000000
 0  | 47  | 0x000000000000 |   1   | 0000000000000000 0000000000000000 0000000000000000 0000000000000000 0000000000000000 0000000000000000 0000000000000000 0000000000000000
 0  | 48  | 0x000000000000 |   1   | 0000000000000000 0000000000000000 0000000000000000 0000000000000000 0000000000000000 0000000000000000 0000000000000000 0000000000000000
 0  | 49  | 0x000000000000 |   1   | 0000000000000000 0000000000000000 0000000000000000 0000000000000000 0000000000000000 0000000000000000 0000000000000000 0000000000000000
 0  | 50  | 0x000000000000 |   1   | 0000000000000000 0000000000000000 0000000000000000 0000000000000000 0000000000000000 0000000000000000 0000000000000000 0000000000000000
 0  | 51  | 0x000000000000 |   1   | 0000000000000000 0000000000000000 0000000000000000 0000000000000000 0000000000000000 0000000000000000 0000000000000000 0000000000000000
 0  | 52  | 0x000000000000 |   1   | 0000000000000000 0000000000000000 0000000000000000 0000000000000000 0000000000000000 0000000000000000 0000000000000000 0000000000000000
 0  | 53  | 0x000000000000 |   1   | 0000000000000000 0000000000000000 0000000000000000 0000000000000000 0000000000000000 0000000000000000 0000000000000000 0000000000000000
 0  | 54  | 0x000000000000 |   1   | 0000000000000000 0000000000000000 0000000000000000 0000000000000000 0000000000000000 0000000000000000 0000000000000000 0000000000000000
 0  | 55  | 0x000000000000 |   1   | 0000000000000000 0000000000000000 0000000000000000 0000000000000000 0000000000000000 0000000000000000 0000000000000000 0000000000000000
 0  | 56  | 0x000000000000 |   1   | 0000000000000000 0000000000000000 0000000000000000 0000000000000000 0000000000000000 0000000000000000 0000000000000000 0000000000000000
 0  | 57  | 0x000000000000 |   1   | 0000000000000000 0000000000000000 0000000000000000 0000000000000000 0000000000000000 0000000000000000 0000000000000000 0000000000000000
 0  | 58  | 0x000000000000 |   1   | 0000000000000000 0000000000000000 0000000000000000 0000000000000000 0000000000000000 0000000000000000 0000000000000000 0000000000000000
 0  | 59  | 0x000000000000 |   1   | 0000000000000000 0000000000000000 0000000000000000 0000000000000000 0000000000000000 0000000000000000 0000000000000000 0000000000000000
 0  | 60  | 0x000000000000 |   1   | 0000000000000000 0000000000000000 0000000000000000 0000000000000000 0000000000000000 0000000000000000 0000000000000000 0000000000000000
 0  | 61  | 0x000000000000 |   1   | 0000000000000000 0000000000000000 0000000000000000 0000000000000000 0000000000000000 0000000000000000 0000000000000000 0000000000000000
 0  | 62  | 0x000000000000 |   1   | 0000000000000000 0000000000000000 0000000000000000 0000000000000000 0000000000000000 0000000000000000 0000000000000000 0000000000000000
 0  | 63  | 0x000000000000 |   1   | 0000000000000000 0000000000000000 0000000000000000 0000000000000000 0000000000000000 0000000000000000 0000000000000000 0000000000000000
=== End ICACHE Detailed Dump ===


=== ECALL Detected - Program Complete ===

==============================================
   CPU64 Register Dump - Final State
==============================================

Reg  | Value (Hex)          | Value (Dec)
-----+----------------------+-------------
x00  | 0x0000000000000000 | 0
x01  | 0x0000000000000037 | 55
x02  | 0x0000000000000059 | 89
x03  | 0x000000000000000a | 10
x04  | 0x000000000000000a | 10
x05  | 0x0000000000000059 | 89
x06  | 0x0000000000000000 | 0
x07  | 0x0000000000000000 | 0
x08  | 0x0000000000000000 | 0
x09  | 0x0000000000000000 | 0
x10  | 0x0000000000000059 | 89
x11  | 0x0000000000000000 | 0
x12  | 0x0000000000000000 | 0
x13  | 0x0000000000000000 | 0
x14  | 0x0000000000000000 | 0
x15  | 0x0000000000000000 | 0
x16  | 0x0000000000000000 | 0
x17  | 0x0000000000000000 | 0
x18  | 0x0000000000000000 | 0
x19  | 0x0000000000000000 | 0
x20  | 0x0000000000000000 | 0
x21  | 0x0000000000000000 | 0
x22  | 0x0000000000000000 | 0
x23  | 0x0000000000000000 | 0
x24  | 0x0000000000000000 | 0
x25  | 0x0000000000000000 | 0
x26  | 0x0000000000000000 | 0
x27  | 0x0000000000000000 | 0
x28  | 0x0000000000000000 | 0
x29  | 0x0000000000000000 | 0
x30  | 0x0000000000000000 | 0
x31  | 0x0000000000000000 | 0

=== Cache Occupancy Summary ===
L1 I$: 64/512 (12.5%) | L1 D$: 0/512 (0.0%)
L2 D$: 0/4096 (0.0%) | L3 D$: 0/32768 (0.0%)
- testbench/integration/core_full/cpu64_core_w_icache_dcache_tb.v:185: Verilog $finish
